<?xml version="1.0" encoding="UTF-8" standalone="no"?>
<!-- Created with Inkscape (http://www.inkscape.org/) -->

<svg
   width="120"
   height="121"
   viewBox="0 0 31.75 32.014583"
   version="1.1"
   id="svg5"
   inkscape:version="1.2.2 (b0a8486541, 2022-12-01)"
   sodipodi:docname="english_2.svg"
   xmlns:inkscape="http://www.inkscape.org/namespaces/inkscape"
   xmlns:sodipodi="http://sodipodi.sourceforge.net/DTD/sodipodi-0.dtd"
   xmlns="http://www.w3.org/2000/svg"
   xmlns:svg="http://www.w3.org/2000/svg">
  <sodipodi:namedview
     id="namedview7"
     pagecolor="#ffffff"
     bordercolor="#666666"
     borderopacity="1.0"
     inkscape:showpageshadow="2"
     inkscape:pageopacity="0.0"
     inkscape:pagecheckerboard="0"
     inkscape:deskcolor="#d1d1d1"
     inkscape:document-units="mm"
     showgrid="false"
     inkscape:zoom="1.6616641"
     inkscape:cx="76.128502"
     inkscape:cy="52.056249"
     inkscape:window-width="1203"
     inkscape:window-height="694"
     inkscape:window-x="0"
     inkscape:window-y="0"
     inkscape:window-maximized="1"
     inkscape:current-layer="layer1" />
  <defs
     id="defs2" />
  <g
     inkscape:label="Layer 1"
     inkscape:groupmode="layer"
     id="layer1"
     transform="translate(-43.200848,-39.131948)">
    <path
       style="fill:none;stroke:#000000;stroke-width:2.64999;stroke-linecap:round;stroke-dasharray:none;stroke-opacity:1;paint-order:stroke fill markers"
       d="m 47.65201,42.659471 c 0,1.491158 0.065,2.983728 0,4.473467 -0.0601,1.37841 -0.25003,2.748092 -0.37504,4.122137 -0.0836,1.463923 -0.19294,2.926601 -0.25077,4.391768 -0.0893,3.665548 -0.10754,5.209331 -0.24966,8.622088 -0.141463,3.397009 -0.124829,1.43763 -0.124829,3.497437 0,0.28683 0,0.573659 0,0.860489 0,0.05382 0,0.107632 0,0.161446 0,0.04864 0,0.194548 0,0.145912 0,-0.09205 0,-0.184094 0,-0.276143"
       id="path8292" />
    <path
       style="fill:none;stroke:#000000;stroke-width:2.66131;stroke-linecap:round;stroke-dasharray:none;stroke-opacity:1;paint-order:stroke fill markers"
       d="m 54.166826,43.184835 c 0,0.265331 0,0.530664 0,0.795995 0.04045,0.475216 0.112457,0.948572 0.121357,1.425651 0.03158,1.69295 0,3.38657 0,5.079856 0,3.210798 0.04276,6.674992 -0.121357,9.888048 -0.03989,0.781025 -0.198841,1.551405 -0.243252,2.332152 -0.0368,0.646886 0,1.296152 0,1.944228 0,1.192359 0,2.384719 0,3.577079"
       id="path22358" />
  </g>
</svg>
