<?xml version="1.0" encoding="UTF-8" standalone="no"?>
<!-- Created with Inkscape (http://www.inkscape.org/) -->

<svg
   width="28.732403mm"
   height="29.107948mm"
   viewBox="0 0 28.732403 29.107948"
   version="1.1"
   id="svg5"
   inkscape:version="1.2.2 (b0a8486541, 2022-12-01)"
   sodipodi:docname="spanish_1.svg"
   xmlns:inkscape="http://www.inkscape.org/namespaces/inkscape"
   xmlns:sodipodi="http://sodipodi.sourceforge.net/DTD/sodipodi-0.dtd"
   xmlns="http://www.w3.org/2000/svg"
   xmlns:svg="http://www.w3.org/2000/svg">
  <sodipodi:namedview
     id="namedview7"
     pagecolor="#ffffff"
     bordercolor="#666666"
     borderopacity="1.0"
     inkscape:showpageshadow="2"
     inkscape:pageopacity="0.0"
     inkscape:pagecheckerboard="0"
     inkscape:deskcolor="#d1d1d1"
     inkscape:document-units="mm"
     showgrid="false"
     inkscape:zoom="1.8628973"
     inkscape:cx="130.17357"
     inkscape:cy="54.485021"
     inkscape:window-width="1203"
     inkscape:window-height="694"
     inkscape:window-x="0"
     inkscape:window-y="0"
     inkscape:window-maximized="1"
     inkscape:current-layer="layer1" />
  <defs
     id="defs2" />
  <g
     inkscape:label="Layer 1"
     inkscape:groupmode="layer"
     id="layer1"
     transform="translate(-43.200848,-39.131948)">
    <path
       style="fill:none;stroke:#000000;stroke-width:2.64999;stroke-linecap:round;stroke-dasharray:none;stroke-opacity:1;paint-order:stroke fill markers"
       d="m 45.526588,40.803934 c 0,1.491158 0.065,2.983728 0,4.473467 -0.0601,1.37841 -0.25003,2.748092 -0.37504,4.122137 -0.0836,1.463923 -0.19294,2.926601 -0.25077,4.391768 -0.0893,3.665548 -0.10754,5.209331 -0.24966,8.622088 -0.141463,3.397009 -0.124829,1.43763 -0.124829,3.497437 0,0.28683 0,0.573659 0,0.860489 0,0.05382 0,0.107632 0,0.161446 0,0.04864 0,0.194548 0,0.145912 0,-0.09205 0,-0.184094 0,-0.276143"
       id="path8292" />
  </g>
</svg>
