<?xml version="1.0" encoding="UTF-8" standalone="no"?>
<!-- Created with Inkscape (http://www.inkscape.org/) -->

<svg
   width="28.732403mm"
   height="29.107948mm"
   viewBox="0 0 28.732403 29.107948"
   version="1.1"
   id="svg5"
   inkscape:version="1.2.2 (b0a8486541, 2022-12-01)"
   sodipodi:docname="spanish_2.svg"
   xmlns:inkscape="http://www.inkscape.org/namespaces/inkscape"
   xmlns:sodipodi="http://sodipodi.sourceforge.net/DTD/sodipodi-0.dtd"
   xmlns="http://www.w3.org/2000/svg"
   xmlns:svg="http://www.w3.org/2000/svg">
  <sodipodi:namedview
     id="namedview7"
     pagecolor="#ffffff"
     bordercolor="#666666"
     borderopacity="1.0"
     inkscape:showpageshadow="2"
     inkscape:pageopacity="0.0"
     inkscape:pagecheckerboard="0"
     inkscape:deskcolor="#d1d1d1"
     inkscape:document-units="mm"
     showgrid="false"
     inkscape:zoom="1.8628973"
     inkscape:cx="130.17357"
     inkscape:cy="54.485021"
     inkscape:window-width="1203"
     inkscape:window-height="694"
     inkscape:window-x="0"
     inkscape:window-y="0"
     inkscape:window-maximized="1"
     inkscape:current-layer="layer1" />
  <defs
     id="defs2" />
  <g
     inkscape:label="Layer 1"
     inkscape:groupmode="layer"
     id="layer1"
     transform="translate(-43.200848,-39.131948)">
    <path
       style="fill:none;stroke:#000000;stroke-width:2.64999;stroke-linecap:round;stroke-dasharray:none;stroke-opacity:1;paint-order:stroke fill markers"
       d="m 45.526588,40.803934 c 0,1.491158 0.065,2.983728 0,4.473467 -0.0601,1.37841 -0.25003,2.748092 -0.37504,4.122137 -0.0836,1.463923 -0.19294,2.926601 -0.25077,4.391768 -0.0893,3.665548 -0.10754,5.209331 -0.24966,8.622088 -0.141463,3.397009 -0.124829,1.43763 -0.124829,3.497437 0,0.28683 0,0.573659 0,0.860489 0,0.05382 0,0.107632 0,0.161446 0,0.04864 0,0.194548 0,0.145912 0,-0.09205 0,-0.184094 0,-0.276143"
       id="path8292" />
    <path
       style="fill:none;stroke:#000000;stroke-width:2.64999;stroke-linecap:round;stroke-dasharray:none;stroke-opacity:1;paint-order:stroke fill markers"
       d="m 46.40661,41.137036 c 0.293942,-0.01071 0.892539,0.261804 0.881826,-0.03214 -0.01071,-0.293942 -1.168766,0.09681 -0.881826,0.03214 0.944644,-0.212905 1.899356,-0.410162 2.865237,-0.479163 1.974483,-0.141058 6.282142,0.03068 8.295728,0.0735 1.54312,0.03282 3.08623,0.08417 4.629698,0.08109 0.874359,-0.0017 1.747558,-0.06369 2.621336,-0.09554 0.665684,-0.02426 1.331367,-0.04852 1.997051,-0.07279 1.134174,-0.04134 2.268352,-0.08267 3.402526,-0.124009 0.290275,-0.01058 0.25806,-0.117398 0.39007,0.161772"
       id="path9028" />
  </g>
</svg>
